…
    ##   serial_num           max_wind    
    ##  Length:562         Min.   :  4.0  
    ##  Class :character   1st Qu.: 45.0  
    ##  Mode  :character   Median : 57.0  
    ##                     Mean   : 66.6  
    ##                     3rd Qu.: 87.5  
    ##                     Max.   :140.0  
    ##                     NA's   :319

``` r
top_high_winds <- high_winds%>%arrange(-max_wind)
top_high_winds
```

    ## # A tibble: 562 x 2
    ##    serial_num    max_wind
    ##    <chr>            <dbl>
    ##  1 2010169N13266      140
    ##  2 2014234N12261      140
    ##  3 2010251N14337      135
    ##  4 2011199N10271      135
    ##  5 2014142N10254      135
    ##  6 2015238N10255      135
    ##  7 2015270N27291      135
    ##  8 2014160N15259      130
    ##  9 2010236N12341      125
    ## 10 2011264N13264      125
    ## # … with 552 more rows
…
